<?xml version="1.0" encoding="UTF-8" standalone="no"?>
<!-- Created with Inkscape (http://www.inkscape.org/) -->

<svg
   xmlns:dc="http://purl.org/dc/elements/1.1/"
   xmlns:cc="http://creativecommons.org/ns#"
   xmlns:rdf="http://www.w3.org/1999/02/22-rdf-syntax-ns#"
   xmlns:svg="http://www.w3.org/2000/svg"
   xmlns="http://www.w3.org/2000/svg"
   xmlns:xlink="http://www.w3.org/1999/xlink"
   xmlns:sodipodi="http://sodipodi.sourceforge.net/DTD/sodipodi-0.dtd"
   xmlns:inkscape="http://www.inkscape.org/namespaces/inkscape"
   width="2155.6694"
   height="961.37622"
   id="svg15658"
   version="1.1"
   inkscape:version="0.48.1 r9760"
   sodipodi:docname="Nouveau document 8">
  <defs
     id="defs15660" />
  <sodipodi:namedview
     id="base"
     pagecolor="#ffffff"
     bordercolor="#666666"
     borderopacity="1.0"
     inkscape:pageopacity="0.0"
     inkscape:pageshadow="2"
     inkscape:zoom="0.35"
     inkscape:cx="1035.7188"
     inkscape:cy="523.51401"
     inkscape:document-units="px"
     inkscape:current-layer="layer1"
     showgrid="false"
     fit-margin-top="0"
     fit-margin-left="0"
     fit-margin-right="0"
     fit-margin-bottom="0"
     inkscape:window-width="1870"
     inkscape:window-height="1056"
     inkscape:window-x="50"
     inkscape:window-y="24"
     inkscape:window-maximized="1" />
  <metadata
     id="metadata15663">
    <rdf:RDF>
      <cc:Work
         rdf:about="">
        <dc:format>image/svg+xml</dc:format>
        <dc:type
           rdf:resource="http://purl.org/dc/dcmitype/StillImage" />
        <dc:title></dc:title>
      </cc:Work>
    </rdf:RDF>
  </metadata>
  <g
     inkscape:label="Calque 1"
     inkscape:groupmode="layer"
     id="layer1"
     transform="translate(660.71875,-94.5)">
    <path
       sodipodi:nodetypes="cccc"
       id="rect6412"
       d="m -202.12607,124.56247 138.366537,97.11838 -138.366527,97.11838 -1e-5,-194.23676 z"
       style="color:#000000;fill:#cc0099;fill-opacity:1;fill-rule:nonzero;stroke:#000000;stroke-width:0;stroke-linecap:butt;stroke-linejoin:miter;stroke-miterlimit:4;stroke-opacity:1;stroke-dashoffset:0;marker:none;visibility:visible;display:inline;overflow:visible;enable-background:accumulate"
       inkscape:connector-curvature="0" />
    <rect
       y="175.79134"
       x="-304.66495"
       height="91.77903"
       width="150.1601"
       id="rect6415"
       style="color:#000000;fill:#cc0099;fill-opacity:1;fill-rule:nonzero;stroke:#000000;stroke-width:0;stroke-linecap:butt;stroke-linejoin:miter;stroke-miterlimit:4;stroke-opacity:1;stroke-dasharray:none;stroke-dashoffset:0;marker:none;visibility:visible;display:inline;overflow:visible;enable-background:accumulate" />
    <rect
       style="color:#000000;fill:#6d6db5;fill-opacity:1;fill-rule:nonzero;stroke:#000000;stroke-width:0;stroke-linecap:butt;stroke-linejoin:miter;stroke-miterlimit:4;stroke-opacity:1;stroke-dasharray:none;stroke-dashoffset:0;marker:none;visibility:visible;display:inline;overflow:visible;enable-background:accumulate"
       id="rect7194"
       width="36"
       height="36"
       x="-660.66492"
       y="94.562462" />
    <rect
       style="color:#000000;fill:#6d6db5;fill-opacity:0.7258065;fill-rule:nonzero;stroke:#000000;stroke-width:0;stroke-linecap:butt;stroke-linejoin:miter;stroke-miterlimit:4;stroke-opacity:1;stroke-dasharray:none;stroke-dashoffset:0;marker:none;visibility:visible;display:inline;overflow:visible;enable-background:accumulate"
       id="rect7196"
       width="20"
       height="20"
       x="-609.66492"
       y="99.562462" />
    <rect
       y="130.56247"
       x="-614.66492"
       height="10"
       width="10"
       id="rect7192"
       style="color:#000000;fill:#6d6db5;fill-opacity:0.45161288;fill-rule:nonzero;stroke:#000000;stroke-width:0;stroke-linecap:butt;stroke-linejoin:miter;stroke-miterlimit:4;stroke-opacity:1;stroke-dasharray:none;stroke-dashoffset:0;marker:none;visibility:visible;display:inline;overflow:visible;enable-background:accumulate" />
    <image
       style="display:inline"
       xlink:href="data:image/png;base64,iVBORw0KGgoAAAANSUhEUgAAADYAAAA3CAYAAABHGbl4AAAABHNCSVQICAgIfAhkiAAABJVJREFU aIHlWr9r40gU/kZckULZakG2CIQE49LJ2XClICyEYPw/aBNcXJU6xx4cBwnnOrVJov/BmMWwBFQe 2Ldx6TMJgaAfsNVGhbt3haVEtmZk+We0vq/zSDOaz9+bmffmPYYlgIj0ad5njBmLnsNPixgkQqT7 Fad16yZJX7WimUQ00rYIomyezi+E3D5qF70ba97ZQEblk/bHoYJHYD6CMxELCLktc/ui4f0568fj oFY08+xQvgJmIzg1MSLSpzG1eTErwcTEhio5ME47521ga5ZJzg4V1cv9jwUkJ5eI2KpVEqFULRt6 AbdJyE0kRkT69GtpdBMQYwYLKBWfLvXM75PIxW73RKR3jeZBvY3J55KaH3w6y/2qhJqS/LNE5A/u oVUzTxoWtNgO7c7WKYrnRBQ7vlCxxKT8fxCY//wJdttpviv6JpdYMvObfkEnRdKNKtgxed+PmGKw UcSSWqBKPARjEhGOYv5gq2FqRqb8wDNLKfK220ctZvdTK5oZmMAySIXBGDOUQ+3xsqp+FL3Trpt6 y8X2ePsIMaJnvXXdOxG5RqVq2RBJvywwxgwU9iEm56Fx3f/NGfNXRxXr9iHaldSKZiY9QxaNieSs 3sZ1yzsJO+MvxIie9VbTOuF2LBWfVq3UOAJy1RK4c7Aafa0b+v2qmFAtFdUEB+IqwBgzCrp2W1Fh Rp9aaLa8F2EkIF6tUnXfKCxrpjOAsU3j8Dh/pXKeWR3nl2CtDRVzHXR4apWKT2+1rmKh5FDmmaTV 2/jcxQHgE3PvrG3eTlj6OfMldaTgm+RR/panWvsf5wMASETP+l3H+xB5Q80Pjgq4XfYkZ4aSQZG3 1mzvvUOkSyIzVIuZvzMpVCsAY5vGXlH+EnlgWRt3LrYluB6iZiijuMfplDIoe+pj1Bw92C52Jdf5 HnFHgHfITIylUgBFRhZ4Gm+2HW8n6isCgCoPFO6DdIGxrJFVcT/ebtneruTa3m6kR1b+lub1FUYm iwdeO1+xHx229/6HJ6Zk5YgpAmugGHcpYQ2IcZGVv0lcKf3T+w2mNDUcGzu8dr5ilrfhLnU6iwGR rdsWIqaoZuV7Scm84xzE3+Fw7hFSB9eDzbnFymbkBwmKDJ5b0rnjOMYpAz8qkZFVcC+JvORw0JZG iKMSdbCn4FESe8mvQVsqIQqOfa9JAkRe8jBomzafvAoQkd793DsQBcdAsCuKgrZ2Z8vo4iB15Nw+ mry7/VBwLAH+BUlZveKN0a5/1bu8B2+EuEvdcHD8eo4VchBda9UN5zwNqg0zQOaB6Jqw7Kd0gRCx ONXQ7mzVxm5aV40gWSJKL6mVnBm+Jhz1PISq+ZmNN1pvE1PFan5wPHZTPZJGYmzTIOdfdC56Gs+G 2/Wmble0nUnZxEVicv5bRuU499d4YBz1FZUczmLSNlbD1E79Nbds9YKsalxSv1TVDF6ue20zmmub gxZWDTDGDCJCFU3hTgRgmMVv4wZqfuAQYYaqAX9sD61ac3LVAJCoJGJt6zz+v5U5AdayliqMtat+ C2Mt6xXDWLsK03HMWxN8FvLKgRTUBIuQhiru/wAgwuMlhK2FRQAAAABJRU5ErkJggg== "
       width="54"
       height="55"
       id="image6431"
       x="-653.67505"
       y="768.17511" />
    <image
       style="display:inline"
       xlink:href="data:image/png;base64,iVBORw0KGgoAAAANSUhEUgAAAjYAAAIwCAYAAACV7yEoAAAABHNCSVQICAgIfAhkiAAACgVJREFU eJzt2LFVwmAAhdHgYQzmSONOqXQ1eugyBmYCJ4iVG4A/fN47wSu/8w7ruu0T/848n0ZPAIC7exs9 AADgXoQNAJAhbACADGEDAGQIGwAgQ9gAABnCBgDIEDYAQIawAQAyhA0AkCFsAIAMYQMAZAgbACBD 2AAAGcIGAMgQNgBAhrABADKEDQCQIWwAgAxhAwBkCBsAIEPYAAAZwgYAyBA2AECGsAEAMoQNAJAh bACADGEDAGQIGwAgQ9gAABnCBgDIEDYAQIawAQAyhA0AkCFsAIAMYQMAZAgbACBD2AAAGcIGAMgQ NgBAhrABADKEDQCQIWwAgAxhAwBkCBsAIEPYAAAZwgYAyBA2AECGsAEAMoQNAJAhbACADGEDAGQI GwAgQ9gAABmHdd320SMe5XK9jZ4A8FCfH++jJ8BT8dgAABnCBgDIEDYAQIawAQAyhA0AkCFsAIAM YQMAZAgbACBD2AAAGcIGAMgQNgBAhrABADKEDQCQIWwAgAxhAwBkCBsAIEPYAAAZwgYAyBA2AECG sAEAMoQNAJAhbACADGEDAGQIGwAgQ9gAABnCBgDIEDYAQIawAQAyhA0AkCFsAIAMYQMAZAgbACBD 2AAAGcIGAMgQNgBAhrABADKEDQCQIWwAgAxhAwBkCBsAIEPYAAAZwgYAyBA2AECGsAEAMoQNAJAh bACADGEDAGQIGwAgQ9gAABnCBgDIEDYAQIawAQAyhA0AkCFsAIAMYQMAZAgbACBD2AAAGcIGAMgQ NgBAhrABADKEDQCQIWwAgAxhAwBkCBsAIEPYAAAZwgYAyBA2AECGsAEAMoQNAJAhbACAjOM8n0Zv eJjL9TZ6AgDwhzw2AECGsAEAMoQNAJAhbACADGEDAGQIGwAgQ9gAABnCBgDIEDYAQIawAQAyhA0A kCFsAIAMYQMAZAgbACBD2AAAGcIGAMgQNgBAhrABADKEDQCQIWwAgAxhAwBkCBsAIEPYAAAZwgYA yBA2AECGsAEAMoQNAJAhbACADGEDAGQIGwAg4zh6APzavr5HT4CXsyzn0RPgqXhsAIAMYQMAZAgb ACBD2AAAGcIGAMgQNgBAhrABADKEDQCQIWwAgAxhAwBkCBsAIEPYAAAZwgYAyBA2AECGsAEAMoQN AJAhbACADGEDAGQIGwAgQ9gAABnCBgDIEDYAQIawAQAyhA0AkCFsAIAMYQMAZAgbACBD2AAAGcIG AMgQNgBAhrABADKEDQCQIWwAgAxhAwBkCBsAIEPYAAAZwgYAyBA2AECGsAEAMoQNAJAhbACADGED AGQIGwAgQ9gAABnCBgDIEDYAQIawAQAyhA0AkCFsAIAMYQMAZAgbACBD2AAAGcIGAMgQNgBAhrAB ADKEDQCQIWwAgAxhAwBkCBsAIEPYAAAZwgYAyBA2AECGsAEAMoQNAJAhbACADGEDAGQIGwAgQ9gA ABnCBgDIEDYAQIawAQAyhA0AkCFsAIAMYQMAZAgbACBD2AAAGcIGAMgQNgBAhrABADKEDQCQIWwA gAxhAwBkCBsAIEPYAAAZwgYAyBA2AECGsAEAMoQNAJAhbACADGEDAGQIGwAgQ9gAABnCBgDIEDYA QIawAQAyhA0AkCFsAIAMYQMAZAgbACBD2AAAGcIGAMgQNgBAhrABADKEDQCQIWwAgAxhAwBkCBsA IEPYAAAZwgYAyBA2AECGsAEAMoQNAJAhbACADGEDAGQIGwAgQ9gAABnCBgDIEDYAQIawAQAyhA0A kCFsAIAMYQMAZAgbACBD2AAAGcIGAMgQNgBAhrABADKEDQCQIWwAgAxhAwBkCBsAIEPYAAAZwgYA yBA2AECGsAEAMoQNAJAhbACADGEDAGQIGwAgQ9gAABnCBgDIEDYAQIawAQAyhA0AkCFsAIAMYQMA ZAgbACBD2AAAGcIGAMgQNgBAhrABADKEDQCQIWwAgAxhAwBkCBsAIEPYAAAZwgYAyBA2AECGsAEA MoQNAJAhbACADGEDAGQIGwAgQ9gAABnCBgDIEDYAQIawAQAyhA0AkCFsAIAMYQMAZAgbACBD2AAA GcIGAMgQNgBAhrABADKEDQCQIWwAgAxhAwBkCBsAIEPYAAAZwgYAyBA2AECGsAEAMoQNAJAhbACA DGEDAGQIGwAgQ9gAABnCBgDIEDYAQIawAQAyhA0AkCFsAIAMYQMAZAgbACBD2AAAGcIGAMgQNgBA hrABADKEDQCQIWwAgAxhAwBkCBsAIEPYAAAZwgYAyBA2AECGsAEAMoQNAJAhbACADGEDAGQIGwAg 47Dv+z56BEzTNC3LefQEAF6cxwYAyBA2AECGsAEAMoQNAJAhbACADGEDAGQIGwAgQ9gAABnCBgDI EDYAQIawAQAyhA0AkCFsAIAMYQMAZAgbACBD2AAAGcIGAMgQNgBAhrABADKEDQCQIWwAgAxhAwBk CBsAIEPYAAAZwgYAyBA2AECGsAEAMoQNAJAhbACADGEDAGQIGwAgQ9gAABnCBgDIEDYAQIawAQAy hA0AkCFsAIAMYQMAZAgbACBD2AAAGcIGAMgQNgBAhrABADKEDQCQIWwAgAxhAwBkCBsAIEPYAAAZ wgYAyBA2AECGsAEAMoQNAJAhbACADGEDAGQIGwAgQ9gAABnCBgDIEDYAQIawAQAyhA0AkCFsAIAM YQMAZAgbACBD2AAAGcIGAMgQNgBAhrABADKEDQCQIWwAgAxhAwBkCBsAIEPYAAAZwgYAyBA2AECG sAEAMoQNAJAhbACADGEDAGQIGwAgQ9gAABnCBgDIEDYAQIawAQAyhA0AkCFsAIAMYQMAZAgbACBD 2AAAGcIGAMgQNgBAhrABADKEDQCQIWwAgAxhAwBkCBsAIEPYAAAZwgYAyBA2AECGsAEAMoQNAJAh bACADGEDAGQIGwAgQ9gAABnCBgDIEDYAQIawAQAyhA0AkCFsAIAMYQMAZAgbACBD2AAAGcIGAMgQ NgBAhrABADKEDQCQIWwAgAxhAwBkCBsAIEPYAAAZwgYAyBA2AECGsAEAMoQNAJAhbACADGEDAGQI GwAgQ9gAABnCBgDIEDYAQIawAQAyhA0AkCFsAIAMYQMAZAgbACBD2AAAGcIGAMgQNgBAhrABADKE DQCQIWwAgAxhAwBkCBsAIEPYAAAZwgYAyBA2AECGsAEAMoQNAJAhbACADGEDAGQIGwAgQ9gAABnC BgDIEDYAQIawAQAyhA0AkCFsAIAMYQMAZAgbACBD2AAAGcIGAMgQNgBAhrABADKEDQCQIWwAgAxh AwBkCBsAIEPYAAAZwgYAyBA2AECGsAEAMoQNAJAhbACADGEDAGQIGwAgQ9gAABnCBgDIEDYAQIaw AQAyhA0AkCFsAIAMYQMAZAgbACBD2AAAGcIGAMgQNgBAhrABADKEDQCQIWwAgAxhAwBk/ADEARwc WHRqAQAAAABJRU5ErkJggg== "
       width="566"
       height="560"
       id="image6459"
       x="-261.96524"
       y="495.87619" />
    <image
       style="display:inline"
       xlink:href="data:image/png;base64,iVBORw0KGgoAAAANSUhEUgAABHQAAAABCAYAAAC/rPnXAAAABHNCSVQICAgIfAhkiAAAACFJREFU WIXtwQENAAAIAyDtn+w5DKI53IBOZgsAAACANw6j6QN2XGgPBAAAAABJRU5ErkJggg== "
       width="1140"
       height="1"
       id="image6473"
       x="-8.7356825"
       y="430.30807" />
    <image
       style="display:inline"
       xlink:href="data:image/png;base64,iVBORw0KGgoAAAANSUhEUgAAArIAAAAKCAYAAABIf72xAAAABHNCSVQICAgIfAhkiAAAEK5JREFU eJztm1Gy7DiOQ8mK2f82ewXzzf64BnUAKXsF5Yh86ZQligRByJbv6//85/+npmrqO7qq5vv6zqv/ fvOYqeqr8a+vXfsMD2zw+pwp/67P1/cxjnOrsWWv7v6KieO37Zr42F2bHUbSoOJlc/SZ75+uGvmm 0Ap+fyczE8Ph/MxfSjRnz5/NOmPYf+jjuqI5u07ev/PuhZ/HAN+N4W/ETjTMR833Wx5859PH9kzN cuDYmjq5nxNUTYsX9Kcx7jgzy58T44DDSvOAfOaj7FQtTyfwnlYOlLNvnM3bf34Lt2/ANPortkI8 M+uv7FR//kyMr9O+VBRPNu5BzN88mnxzf/K0fb9kKWezM4Kr3ZbLoc2MR7ZG3Gf+5o5t7c7y7sSM duXfchG+apz8FQ6ZC9nh/Nm+sf/9zprb2Oe0rc9pu+Bzh+0p77M5+TV2zpzCTXEiLzd2sMHcrC3V xdy8+Ph7OME8CLfI82JGX+q0f+OP/TLtID5P/hb6f/FsvX7XD6+Y1z51Hnq8tqU7I4xQ08wXObB1 /MgL5yPfN2/AoOr8Zo6EBb+3noC7tK3BP+iP1ZLyWz+wICeuHESe4f9yRH3M9y9hlss+8UrLYj1T TZ880XcFzNpVE7hSda2nq50y2MdiDedakgJv+vQdDV1SIk63mP+sHauLmT+taatPjgFzVsy11hMk RXiRc2Zb/erYo/5vjU/0bOav9p5qmHj5Ih8Qb6mulEfct21eaqr+2Zn7b5KeXbzPuSxBme0mr44N u6kMBj/HKsA56DV9+uzIB9nv8X4gQ8HUjud1TT8Yu35FLHv9i4U3jiCMzauwhFk3Ygm86rM5jB/X ar65t/pObBsP2gcOyCTItb5UfbF8823O4Td9mo72Om0i4OaKqgvsDBfE3O0Y0bcBYEGl4x/iO8Bk Z2CgOKIvh68vrGQvJLf7sNnZJccN7HXMUwe3rmN3xY05CGI1bFgbplbObX7Mp1jNNLg6wHF9H1w/ Ia7fqnHNzbo0f8ELcUUxZ7pXP+r03ZpIDqgTtI52G04nry2gORgl9ryjEH50eGOgrmZMfT4bI+PJ 2gk9wsJ+jyHn4SP1ZO0InzrxWizsD73QAqcPNYm5pA4lP+UUub/j6lxbLsE+FsCE4M8n2uGBmgp3 DZfVL/nBPIr7whf9TacZU/tceSwv2VaOq3LVd9cTixUk8tV16UuuH6lh278OrsZX9E28l2/g6/aF L8bRB/ezRpXbviY6mlUYY5oL7cu16MKD/tIPYMCcM75rfXrVX+IjvDEf/YOpvQfYFJCzGsfr0LeB EeWs6dOcWPiUnpuWq0u6zhgf3LH6z7iQk+UmplLf/ysaegEdxkkeK2yIF4OxxR2B6No1L8UENjkH yddsS5t1gM6bWVtIQLInUTinph6Hism5+hKPAvlZ6CRq+FHz/uYOrxE2CGX69ShgDtm4g4g518DW 2q3z284RF3HQvCziyXEsGhYIyT9uy3L44O4Qx3CXO/F5k5Ic6RxXB+vFmTlGPgzbl52HiJGzi8tL zR4HceXcG89DA1bYgRn5SXt2on4aE9fpNuv9qiPVWGBoC86ctlycrrcuyNvmWf3YB3GKu0miX3M0 54sYyWXjcCMGjHndyHNjYaJfLvhPfOFzx3xbM+DYs8aZ1370neA666nO2ITJjtCTzjbkITdctmzV /iN3bM8bT9P39vpeF+hDxNi0/z9itHGRO9MCYL/hf3MP46sTs/EW8Vlf/mSuH/wlbtS6taOcR9yN 69S1XxhZulAzG3/kswr5oq/yc+pac3Qt9XhNRt2YRtS5liHYePCGOmZ6jtwulsFl4XXpbbl9k6ms t+SCbIYNHo0T6ws7qhXpyaURmaPIQz/aXj5yvkuPq+ofAj9+zQMS8ZHgeXXmMZ4v9mURrK1CQVN0 xkEWsVg0KyzhEhcDippOE/y9yaajOGfxGeio6I2VFZICFwW6gnW6GmFsp7wjV/wBwG1nPUUmRY8F y+vC5BHqK/XKA3ll9YOcWq7ZB8av+ps4F0+yQGDa/ETBWS5ZnCHyr138SxRSZGTnBRKxpa/IEXli uHVwes6HMW5MyLP6GaXH+yUvjSfUiD54SMxWmHROTMm78EFxpCiz6FUfz7wyByGg1IRBn9euJW+8 bVcI+NjOFUUa+OxNIzUheKUdWwvhs2lCrXb2IT80D7WGAcMftadm7MMB8f4RlzDcN1DKd9jdGKts USXXzYfQquXMHKx37p3gXeN8nboYUE8aUMFv6qrVXNjirlnXGXftLDOfwF82mKqrJuCD7dKVn7P+ 6QvXT9Ulpl9O2s1BnZwtL6quG6J9SI163TeLdWxQDzne1kDmq9xnq1kEnvlmvSVHX5s55Cy5cAyc C1Px+5Grtct4E3PVLnVG3P/yYToBnad+cm7ydPFBLe/a9cBtfzc+dbCyBxJcZ3ziHKXH7ADD9svr V+bG/OuwkTn7jn9sseg7UIqYCaeu9RlrR7QLMO6QXYv/Rv+Yn86H8LEQcrdo3QkA+ApwRbzdngjE nSGKhIlt3WMXMpJwHvYYd/rNpjkfEzLimzA+Ko67DYU+JkZ929y4wod1tFCED95cwiZMwOx8mrdD cyjgxD/49OtJk8Vru4YNO/RJthjHnHbZHJzsbunLAfWDAHAHq2DLRAu1oN/Cg+0m2BWNODdqEHtx fo7tqiO0MczE7Io36xnXTQBjjOppRSyvo4ZseNRAv/Anf+SiYhO38c2d77X98JdcLOUz6oTaR2zJ PfKIc219yt85Oek6Wrbups/l/OYimnmyhxnGha479DvJhVc4mBkMXpzg79rCoPWxMR61kbvBrH9b 8RKIwXg1z+8hilEdWP81bsOk/FEzmvd6awF89xzcFN7kDTGX/XxwvI6JD2rbHjzax5P3tjNaB7ut Gfia8SzH223uA17oVT5Im2/ULdT73gvQFOpevsr+NUfOi3qxG/p16PZnv9rbtzZwrjm2FvBtXKJ+ R+y6v6C/iz25PeAV24hr4Rrm3/SAL3Z9YiDqMzcbUdp/7cIMXLLaSB34jn8IojkwcLgcSO5q0IkF mIMehURxf72GsO38LlskiTETfaFTdYl6Ywy5RuHLXUICyadJgrxPDSxy+ibSQwiNtPIJRLR4Mk7F RaJCkDIuDxJ4zInZXrWyAMtJk/gVCkdFQPsUktdrY3s9/MIc47Z4YHNFgv4wDvgXVDOh2rF1asF8 /CEg9vCHtuQMU0qf94aEJgZ25DtjHrdBTrLmJrHTeAKhWh7MDV5jGrtGP587uJjrRWcTOQKDRGXO LNfKbdqmboWGbReMa8SzeWW9RF3Tf/NbXRED9ckebArcoj8xjw2hViD/HMv8ZZ0s19P4NdGp44m+ dlP+g7+0eWlC3d/EwxZP1Q3qR/gm3fLNlk64E8cHhMm+4Ow+jACLXXxDB9mHmibtqy67oeQDER22 P0+putYZC+7Fkb5Tbn8eglxlQfGBw/iv+IQFdaXt5/VGZ9dHTEc9MN/nGHpplHKyG06hLxZ3FHq+ 8SB/zA9ww/ir+GGEes57BeNh6OJ1bRBPHVtcz4WNvS2u4zs5f2lZn29qtnEsx+obCWNaqam7PiTe 6tNud1M8x6cOm4wh4/ql11uv9e9/9tqxSW7FwoWI29zqU7A75WEJs93tTci+9t0FpXixSMZFkPXG fGXBQCO2jTtU3P0w4dB4+MRiz6dtCeHmCv4UsDNcEPOKLYTbnrxuuNfutaqlcvIa/Cz49MKVNwbD NnUK/urcXsNll4cy2Gu2mNvEDjW5sdeDk4qhHQKe75Qd82O+Fe3wn0/9DWPLDV0/Ia7f3Mlv9Eu8 FhvZVX6mrnRTmNV3ayI5oE7QOtrNRZW8toDmYJTY801P7iZsLcMX0wPEYJygmGle1k7o0evPJqhn xIILQwmD5FqdeC0W9odeaMHKV6UsMNOJvkyvU+T+jqtzbbkE+3tTcENgu9fXgZoKdw2X1S/5wTyK +8IX/U2nGVP7XHlcO5QVMai2CvM9QrveNipfXZe+5PqRGpZ/KpIbNOybeC/fwNftC1+Mow/uZ41e G2v4YRslC0jkrT2Wq3aFBf2lH8CAObcHAcZG39VMH5GTifnoH0ztPcCmgJzVOF6Hvg2MKGdNn+bE wpv03JlfXdJ1xvjgjtV/xoWcvG5y1fff/+yFcZZkAso5NfU4VLbbmH2JR4H8LHQSNfyoeX/ziS5f ETAHpl+PAuaQjTuImHMNbK3dOr/tHHERB83LIp4cx6JhgZD847Yshw/uXq8c4S6fGvMmJTnSOa4O 1rYjM27b0khe0s5DxMhZvpZMrF8HceXcG89DA1bYgRn5SXt2on4aE9fpNuv9qiPVWGBoC86ctlyc 7KGD2Mk2ucs+iFPcTRL9muN63YkYyWXjcCMGjHndyHNjYaJfLvhPfOFz7tBuzYBjzxpnXvvRd4Lr rKc6YxMmO0JPOtuQh9xw2bJV+4/csT1vPE3f2+t7XaAPEWPT/v+I0cZF7kwLgP2G/81tf0ZQJ2bj LeKzvvzJXD/4S9yodWtHOY+4G9fz1fELI0sXambjj3xWIV/0VX5OXWuOrqUer8moG9OIOtcyBBsP 3lDHTM+R28UyuCy8Lr0tt28ylfWWXJDNsMGjcWJ9YUe1Ij25NCJzFHnoR9vLR8536XH9+5+9LvD5 dyOXsSg+Ax0VvbGyQlLgokBXsE5X3+ZHwq/XtfwBwG1nPUUmRY8Fy+vC5BHqK/XKA3ll9YOc5p9x MHYWt42fOBdPskBg2vxEwVkuWZwh8q9d/EsUUmRk5wUSsaWvyBF5Yrh1cHrOhzFuTMgzX4utK+P9 kpfGE2pEHzwkZitMOiem5F34oDhSlFn0qo9nXpmDEFB7vYc+r11L3njbrhDwsZ0rijTw2ZtGakLw Sju2FsJn04Ra7exDfmgeag0Dhj9qT83YhwPi/SMuYbhvoJTvsLsxVtmiSq6bD6FVy5k5WO/cO8G7 xhdn5o160oAKflNXrebCFnfNus64a2eZ+QT+ssFUXTUBH2yXrvyc9U9fuH6qLjH9ctJuDurkbHlR dd0Q7UNq1Ou+Waxjg3rI8bYGMl/lPlvNIvDMN+stOfrazCFnyYVj4FyYit+PXK1dxpuYq3apM+L+ lw/TCei8/YkK59R1nF9rf53x6bfFFvjbAwmuMz5xjtJjdoBh++X1K3Nj/nXYyJx9x7//2euzZU+x UDMVpwkbC5EJjbELGUk4D3uMO/1m05yPCRnxTRgfFcfdhkIfE6O+bW5c4cM6WijCB28uYRMmYHY+ zduhORRw4h98+vWkyeK1XcOGHfokW4xjTrtsDk52t/TlgPpBALiDVbBlooVa0G/hwXYT7IpGnBs1 iL04P8d21RHaGGZidsWb9YzrJoAxRvW0IpbXUUM2PGqgX/iTP3JRsYnb+ObO99p++EsulvIZdULt I7bkHnnEubY+5e+cnHQdLVt30+dyfnMRzTzZwwzjQtcd+p3kwisczAwGL07wd21h0PrYGI/ayN1g 1r+teAnEYLya5/cQxagOrP8at2FS/qgZzXu9tQC+ew5uCm/yhpjLfj44XsfEB7VtDx7t48l72xmt g93WDHzNeJbj7Tb3AS/0Kh+kzTfqFup97wVoCnUvX2X/miPnRb3YDf06dPuzX+3tWxs41xxbC/g2 LlG/I3bdX9DfxZ7cHvCKbcS1cA3zb3rAF7s+MRD1mZuNKO2/dmEGLlltpA58x38BDzX16oacVfoA AAAASUVORK5CYII= "
       width="690"
       height="10"
       id="image6487"
       x="-485.18558"
       y="383.38165" />
    <image
       style="display:inline"
       xlink:href="data:image/png;base64,iVBORw0KGgoAAAANSUhEUgAAB2IAAAABCAYAAAAM/m55AAAABHNCSVQICAgIfAhkiAAAAMVJREFU WIXtl0kOgCAMRctZjPe/BHdyZ90aEyKlc/VtTfhDUaH1fiAAwLafYAmiqdwcCACN8dyLqL6YtIKZ 5LEtaVpN21axPc+KUqiHWVQiF/jgmCZIWpeJbVERmcVCjkvTFNJfaZffioBg2h1ClAy5h1chhImd mx8kdj4+BY4WQ4bRSJnjFlQkBhlyFJfsfFER2wnmrm4xYAdylhZWcuwj4CjmMDSetqM7CgeLEr1Q YYT+ZF8cRoU9Lt/2vf6TfKPyPcaTC5glDf7VRICJAAAAAElFTkSuQmCC "
       width="1890"
       height="1"
       id="image6529"
       x="-395.04935"
       y="464.24918" />
  </g>
</svg>
